Thu Nov  5 00:58:17 BRST 2015
20151105005818,10.20.129.200,5001,10.20.129.201,58358,4,0.0-1.0,298981376,2391851008
20151105005819,10.20.129.200,5001,10.20.129.201,58358,4,1.0-2.0,387885800,3103086400
20151105005820,10.20.129.200,5001,10.20.129.201,58358,4,2.0-3.0,387921128,3103369024
20151105005821,10.20.129.200,5001,10.20.129.201,58358,4,3.0-4.0,390794824,3126358592
20151105005822,10.20.129.200,5001,10.20.129.201,58358,4,4.0-5.0,393453088,3147624704
20151105005823,10.20.129.200,5001,10.20.129.201,58358,4,5.0-6.0,387581192,3100649536
20151105005824,10.20.129.200,5001,10.20.129.201,58358,4,6.0-7.0,391968544,3135748352
20151105005825,10.20.129.200,5001,10.20.129.201,58358,4,7.0-8.0,394326720,3154613760
20151105005826,10.20.129.200,5001,10.20.129.201,58358,4,8.0-9.0,391719000,3133752000
20151105005827,10.20.129.200,5001,10.20.129.201,58358,4,9.0-10.0,392160992,3137287936
20151105005828,10.20.129.200,5001,10.20.129.201,58358,4,10.0-11.0,390245776,3121966208
20151105005829,10.20.129.200,5001,10.20.129.201,58358,4,11.0-12.0,385561400,3084491200
20151105005830,10.20.129.200,5001,10.20.129.201,58358,4,12.0-13.0,394886760,3159094080
20151105005831,10.20.129.200,5001,10.20.129.201,58358,4,13.0-14.0,390237904,3121903232
20151105005832,10.20.129.200,5001,10.20.129.201,58358,4,14.0-15.0,389971312,3119770496
20151105005833,10.20.129.200,5001,10.20.129.201,58358,4,15.0-16.0,392642368,3141138944
20151105005834,10.20.129.200,5001,10.20.129.201,58358,4,16.0-17.0,385269976,3082159808
20151105005835,10.20.129.200,5001,10.20.129.201,58358,4,17.0-18.0,388982904,3111863232
20151105005836,10.20.129.200,5001,10.20.129.201,58358,4,18.0-19.0,388216192,3105729536
20151105005837,10.20.129.200,5001,10.20.129.201,58358,4,19.0-20.0,393207224,3145657792
20151105005838,10.20.129.200,5001,10.20.129.201,58358,4,20.0-21.0,396265768,3170126144
20151105005839,10.20.129.200,5001,10.20.129.201,58358,4,21.0-22.0,390884352,3127074816
20151105005840,10.20.129.200,5001,10.20.129.201,58358,4,22.0-23.0,388336168,3106689344
20151105005841,10.20.129.200,5001,10.20.129.201,58358,4,23.0-24.0,387922240,3103377920
20151105005842,10.20.129.200,5001,10.20.129.201,58358,4,24.0-25.0,390826384,3126611072
20151105005843,10.20.129.200,5001,10.20.129.201,58358,4,25.0-26.0,389308080,3114464640
20151105005844,10.20.129.200,5001,10.20.129.201,58358,4,26.0-27.0,387057440,3096459520
20151105005845,10.20.129.200,5001,10.20.129.201,58358,4,27.0-28.0,390391576,3123132608
20151105005846,10.20.129.200,5001,10.20.129.201,58358,4,28.0-29.0,392470408,3139763264
20151105005847,10.20.129.200,5001,10.20.129.201,58358,4,29.0-30.0,388841000,3110728000
20151105005848,10.20.129.200,5001,10.20.129.201,58358,4,30.0-31.0,206834424,1654675392
20151105005849,10.20.129.200,5001,10.20.129.201,58358,4,31.0-32.0,173689528,1389516224
20151105005850,10.20.129.200,5001,10.20.129.201,58358,4,32.0-33.0,175135224,1401081792
20151105005851,10.20.129.200,5001,10.20.129.201,58358,4,33.0-34.0,175225848,1401806784
20151105005852,10.20.129.200,5001,10.20.129.201,58358,4,34.0-35.0,175273952,1402191616
20151105005853,10.20.129.200,5001,10.20.129.201,58358,4,35.0-36.0,174863360,1398906880
20151105005854,10.20.129.200,5001,10.20.129.201,58358,4,36.0-37.0,176203960,1409631680
20151105005855,10.20.129.200,5001,10.20.129.201,58358,4,37.0-38.0,175359160,1402873280
20151105005856,10.20.129.200,5001,10.20.129.201,58358,4,38.0-39.0,175110360,1400882880
20151105005857,10.20.129.200,5001,10.20.129.201,58358,4,39.0-40.0,174530064,1396240512
20151105005858,10.20.129.200,5001,10.20.129.201,58358,4,40.0-41.0,176491928,1411935424
20151105005859,10.20.129.200,5001,10.20.129.201,58358,4,41.0-42.0,175006928,1400055424
20151105005900,10.20.129.200,5001,10.20.129.201,58358,4,42.0-43.0,175267368,1402138944
20151105005901,10.20.129.200,5001,10.20.129.201,58358,4,43.0-44.0,174505824,1396046592
20151105005902,10.20.129.200,5001,10.20.129.201,58358,4,44.0-45.0,175059040,1400472320
20151105005903,10.20.129.200,5001,10.20.129.201,58358,4,45.0-46.0,175021208,1400169664
20151105005904,10.20.129.200,5001,10.20.129.201,58358,4,46.0-47.0,174370104,1394960832
20151105005905,10.20.129.200,5001,10.20.129.201,58358,4,47.0-48.0,174197112,1393576896
20151105005906,10.20.129.200,5001,10.20.129.201,58358,4,48.0-49.0,175044272,1400354176
20151105005907,10.20.129.200,5001,10.20.129.201,58358,4,49.0-50.0,173964184,1391713472
20151105005908,10.20.129.200,5001,10.20.129.201,58358,4,50.0-51.0,175083400,1400667200
20151105005909,10.20.129.200,5001,10.20.129.201,58358,4,51.0-52.0,174303000,1394424000
20151105005910,10.20.129.200,5001,10.20.129.201,58358,4,52.0-53.0,175280400,1402243200
20151105005911,10.20.129.200,5001,10.20.129.201,58358,4,53.0-54.0,175725280,1405802240
20151105005912,10.20.129.200,5001,10.20.129.201,58358,4,54.0-55.0,174277672,1394221376
20151105005913,10.20.129.200,5001,10.20.129.201,58358,4,55.0-56.0,174029480,1392235840
20151105005914,10.20.129.200,5001,10.20.129.201,58358,4,56.0-57.0,174306520,1394452160
20151105005915,10.20.129.200,5001,10.20.129.201,58358,4,57.0-58.0,175383208,1403065664
20151105005916,10.20.129.200,5001,10.20.129.201,58358,4,58.0-59.0,174682872,1397462976
20151105005917,10.20.129.200,5001,10.20.129.201,58358,4,59.0-60.0,174981168,1399849344
20151105005918,10.20.129.200,5001,10.20.129.201,58358,4,60.0-61.0,174198504,1393588032
20151105005919,10.20.129.200,5001,10.20.129.201,58358,4,61.0-62.0,164918808,1319350464
20151105005920,10.20.129.200,5001,10.20.129.201,58358,4,62.0-63.0,164986848,1319894784
20151105005921,10.20.129.200,5001,10.20.129.201,58358,4,63.0-64.0,165039088,1320312704
20151105005922,10.20.129.200,5001,10.20.129.201,58358,4,64.0-65.0,165688544,1325508352
20151105005923,10.20.129.200,5001,10.20.129.201,58358,4,65.0-66.0,165480672,1323845376
20151105005924,10.20.129.200,5001,10.20.129.201,58358,4,66.0-67.0,166587976,1332703808
20151105005925,10.20.129.200,5001,10.20.129.201,58358,4,67.0-68.0,166223160,1329785280
20151105005926,10.20.129.200,5001,10.20.129.201,58358,4,68.0-69.0,168152064,1345216512
20151105005927,10.20.129.200,5001,10.20.129.201,58358,4,69.0-70.0,166812288,1334498304
20151105005928,10.20.129.200,5001,10.20.129.201,58358,4,70.0-71.0,166420232,1331361856
20151105005929,10.20.129.200,5001,10.20.129.201,58358,4,71.0-72.0,166927024,1335416192
20151105005930,10.20.129.200,5001,10.20.129.201,58358,4,72.0-73.0,168034752,1344278016
20151105005931,10.20.129.200,5001,10.20.129.201,58358,4,73.0-74.0,166862584,1334900672
20151105005932,10.20.129.200,5001,10.20.129.201,58358,4,74.0-75.0,166119240,1328953920
20151105005933,10.20.129.200,5001,10.20.129.201,58358,4,75.0-76.0,164842176,1318737408
20151105005934,10.20.129.200,5001,10.20.129.201,58358,4,76.0-77.0,167450856,1339606848
20151105005935,10.20.129.200,5001,10.20.129.201,58358,4,77.0-78.0,165298520,1322388160
20151105005936,10.20.129.200,5001,10.20.129.201,58358,4,78.0-79.0,166486072,1331888576
20151105005937,10.20.129.200,5001,10.20.129.201,58358,4,79.0-80.0,167383640,1339069120
20151105005938,10.20.129.200,5001,10.20.129.201,58358,4,80.0-81.0,165805584,1326444672
20151105005939,10.20.129.200,5001,10.20.129.201,58358,4,81.0-82.0,166197016,1329576128
20151105005940,10.20.129.200,5001,10.20.129.201,58358,4,82.0-83.0,165919808,1327358464
20151105005941,10.20.129.200,5001,10.20.129.201,58358,4,83.0-84.0,165415096,1323320768
20151105005942,10.20.129.200,5001,10.20.129.201,58358,4,84.0-85.0,165834264,1326674112
20151105005943,10.20.129.200,5001,10.20.129.201,58358,4,85.0-86.0,163342840,1306742720
20151105005944,10.20.129.200,5001,10.20.129.201,58358,4,86.0-87.0,166545760,1332366080
20151105005945,10.20.129.200,5001,10.20.129.201,58358,4,87.0-88.0,164568184,1316545472
20151105005946,10.20.129.200,5001,10.20.129.201,58358,4,88.0-89.0,166421624,1331372992
20151105005947,10.20.129.200,5001,10.20.129.201,58358,4,89.0-90.0,166604656,1332837248
20151105005948,10.20.129.200,5001,10.20.129.201,58358,4,90.0-91.0,167552848,1340422784
20151105005949,10.20.129.200,5001,10.20.129.201,58358,4,91.0-92.0,188737720,1509901760
20151105005950,10.20.129.200,5001,10.20.129.201,58358,4,92.0-93.0,468841224,3750729792
20151105005951,10.20.129.200,5001,10.20.129.201,58358,4,93.0-94.0,431216688,3449733504
20151105005952,10.20.129.200,5001,10.20.129.201,58358,4,94.0-95.0,431228304,3449826432
20151105005953,10.20.129.200,5001,10.20.129.201,58358,4,95.0-96.0,422943896,3383551168
20151105005954,10.20.129.200,5001,10.20.129.201,58358,4,96.0-97.0,423749288,3389994304
20151105005955,10.20.129.200,5001,10.20.129.201,58358,4,97.0-98.0,419233824,3353870592
20151105005956,10.20.129.200,5001,10.20.129.201,58358,4,98.0-99.0,415887584,3327100672
20151105005957,10.20.129.200,5001,10.20.129.201,58358,4,99.0-100.0,421034064,3368272512
20151105005958,10.20.129.200,5001,10.20.129.201,58358,4,100.0-101.0,418143168,3345145344
20151105005959,10.20.129.200,5001,10.20.129.201,58358,4,101.0-102.0,415540688,3324325504
20151105010000,10.20.129.200,5001,10.20.129.201,58358,4,102.0-103.0,422122472,3376979776
20151105010001,10.20.129.200,5001,10.20.129.201,58358,4,103.0-104.0,404936248,3239489984
20151105010002,10.20.129.200,5001,10.20.129.201,58358,4,104.0-105.0,408228320,3265826560
20151105010003,10.20.129.200,5001,10.20.129.201,58358,4,105.0-106.0,399350768,3194806144
20151105010004,10.20.129.200,5001,10.20.129.201,58358,4,106.0-107.0,392451720,3139613760
20151105010005,10.20.129.200,5001,10.20.129.201,58358,4,107.0-108.0,384691168,3077529344
20151105010006,10.20.129.200,5001,10.20.129.201,58358,4,108.0-109.0,387821888,3102575104
20151105010007,10.20.129.200,5001,10.20.129.201,58358,4,109.0-110.0,382768832,3062150656
20151105010008,10.20.129.200,5001,10.20.129.201,58358,4,110.0-111.0,385273680,3082189440
20151105010009,10.20.129.200,5001,10.20.129.201,58358,4,111.0-112.0,390390168,3123121344
20151105010010,10.20.129.200,5001,10.20.129.201,58358,4,112.0-113.0,388832320,3110658560
20151105010011,10.20.129.200,5001,10.20.129.201,58358,4,113.0-114.0,396128072,3169024576
20151105010012,10.20.129.200,5001,10.20.129.201,58358,4,114.0-115.0,385513912,3084111296
20151105010013,10.20.129.200,5001,10.20.129.201,58358,4,115.0-116.0,391965832,3135726656
20151105010014,10.20.129.200,5001,10.20.129.201,58358,4,116.0-117.0,396796656,3174373248
20151105010015,10.20.129.200,5001,10.20.129.201,58358,4,117.0-118.0,391449232,3131593856
20151105010016,10.20.129.200,5001,10.20.129.201,58358,4,118.0-119.0,386039880,3088319040
20151105010017,10.20.129.200,5001,10.20.129.201,58358,4,119.0-120.0,689062944,5512503552
20151105010017,10.20.129.200,5001,10.20.129.201,58358,4,0.0-120.0,33896529920,2259597948
