 backlog 0b 0p requeues 0 
 backlog 0b 0p requeues 0 
 backlog 0b 0p requeues 0 
 backlog 0b 0p requeues 0 
 backlog 0b 0p requeues 0 
 backlog 0b 0p requeues 0 
 backlog 0b 0p requeues 0 
 backlog 0b 0p requeues 0 
 backlog 0b 0p requeues 0 
 backlog 0b 0p requeues 0 
 backlog 0b 0p requeues 0 
 backlog 0b 0p requeues 0 
 backlog 0b 0p requeues 0 
 backlog 0b 0p requeues 0 
 backlog 0b 0p requeues 0 
 backlog 0b 0p requeues 0 
 backlog 0b 0p requeues 0 
 backlog 0b 0p requeues 0 
 backlog 0b 0p requeues 0 
 backlog 0b 0p requeues 0 
 backlog 0b 0p requeues 0 
 backlog 0b 0p requeues 0 
 backlog 0b 0p requeues 0 
 backlog 0b 0p requeues 0 
 backlog 0b 0p requeues 0 
 backlog 0b 0p requeues 0 
 backlog 0b 0p requeues 0 
 backlog 0b 0p requeues 0 
 backlog 0b 0p requeues 0 
 backlog 0b 0p requeues 0 
 backlog 0b 0p requeues 0 
 backlog 0b 0p requeues 0 
 backlog 0b 0p requeues 0 
 backlog 0b 0p requeues 0 
 backlog 0b 0p requeues 0 
 backlog 0b 0p requeues 0 
 backlog 0b 0p requeues 0 
 backlog 0b 0p requeues 0 
 backlog 0b 0p requeues 0 
 backlog 0b 0p requeues 0 
 backlog 0b 0p requeues 0 
 backlog 0b 0p requeues 0 
 backlog 0b 0p requeues 0 
 backlog 0b 0p requeues 0 
 backlog 0b 0p requeues 0 
 backlog 0b 0p requeues 0 
 backlog 0b 0p requeues 0 
 backlog 0b 0p requeues 0 
 backlog 0b 0p requeues 0 
 backlog 0b 0p requeues 0 
 backlog 0b 0p requeues 0 
 backlog 0b 0p requeues 0 
 backlog 0b 0p requeues 0 
 backlog 0b 0p requeues 0 
 backlog 0b 0p requeues 0 
 backlog 0b 0p requeues 0 
 backlog 0b 0p requeues 0 
 backlog 0b 0p requeues 0 
 backlog 0b 0p requeues 0 
 backlog 0b 0p requeues 0 
 backlog 0b 0p requeues 0 
 backlog 0b 0p requeues 0 
 backlog 0b 0p requeues 0 
 backlog 0b 0p requeues 0 
 backlog 0b 0p requeues 0 
 backlog 0b 0p requeues 0 
 backlog 0b 0p requeues 0 
 backlog 0b 0p requeues 0 
 backlog 0b 0p requeues 0 
 backlog 0b 0p requeues 0 
 backlog 0b 0p requeues 0 
 backlog 0b 0p requeues 0 
 backlog 0b 0p requeues 0 
 backlog 0b 0p requeues 0 
 backlog 0b 0p requeues 0 
 backlog 0b 0p requeues 0 
 backlog 0b 0p requeues 0 
 backlog 0b 0p requeues 0 
 backlog 0b 0p requeues 0 
 backlog 0b 0p requeues 0 
 backlog 0b 0p requeues 0 
 backlog 0b 0p requeues 0 
 backlog 0b 0p requeues 0 
 backlog 0b 0p requeues 0 
 backlog 0b 0p requeues 0 
 backlog 0b 0p requeues 0 
 backlog 0b 0p requeues 0 
 backlog 0b 0p requeues 0 
 backlog 0b 0p requeues 0 
 backlog 0b 0p requeues 0 
 backlog 0b 0p requeues 0 
 backlog 0b 0p requeues 0 
 backlog 0b 0p requeues 0 
 backlog 0b 0p requeues 0 
 backlog 0b 0p requeues 0 
 backlog 0b 0p requeues 0 
 backlog 0b 0p requeues 0 
 backlog 0b 0p requeues 0 
 backlog 0b 0p requeues 0 
 backlog 0b 0p requeues 0 
 backlog 0b 0p requeues 0 
 backlog 0b 0p requeues 0 
 backlog 0b 0p requeues 0 
 backlog 0b 0p requeues 0 
 backlog 0b 0p requeues 0 
 backlog 0b 0p requeues 0 
 backlog 0b 0p requeues 0 
 backlog 0b 0p requeues 0 
 backlog 0b 0p requeues 0 
 backlog 0b 0p requeues 0 
 backlog 0b 0p requeues 0 
 backlog 0b 0p requeues 0 
 backlog 0b 0p requeues 0 
 backlog 0b 0p requeues 0 
 backlog 0b 0p requeues 0 
 backlog 0b 0p requeues 0 
 backlog 0b 0p requeues 0 
 backlog 0b 0p requeues 0 
 backlog 0b 0p requeues 0 
 backlog 0b 0p requeues 0 
 backlog 0b 0p requeues 0 
 backlog 0b 0p requeues 0 
 backlog 0b 0p requeues 0 
