 backlog 0b 0p requeues 5480 
 backlog 0b 0p requeues 5480 
 backlog 0b 0p requeues 5515 
 backlog 0b 0p requeues 5549 
 backlog 0b 0p requeues 5592 
 backlog 0b 0p requeues 5622 
 backlog 0b 0p requeues 5661 
 backlog 0b 0p requeues 5690 
 backlog 0b 0p requeues 5726 
 backlog 0b 0p requeues 5789 
 backlog 0b 0p requeues 5833 
 backlog 0b 0p requeues 5859 
 backlog 0b 0p requeues 5900 
 backlog 0b 0p requeues 5941 
 backlog 0b 0p requeues 5982 
 backlog 0b 0p requeues 6030 
 backlog 0b 0p requeues 6066 
 backlog 0b 0p requeues 6124 
 backlog 0b 0p requeues 6182 
 backlog 0b 0p requeues 6239 
 backlog 0b 0p requeues 6285 
 backlog 0b 0p requeues 6325 
 backlog 0b 0p requeues 6384 
 backlog 0b 0p requeues 6422 
 backlog 0b 0p requeues 6478 
 backlog 0b 0p requeues 6520 
 backlog 0b 0p requeues 6554 
 backlog 0b 0p requeues 6604 
 backlog 0b 0p requeues 6655 
 backlog 0b 0p requeues 6702 
 backlog 0b 0p requeues 6751 
 backlog 0b 0p requeues 6804 
 backlog 0b 0p requeues 6818 
 backlog 0b 0p requeues 6818 
 backlog 0b 0p requeues 6818 
 backlog 0b 0p requeues 6818 
 backlog 0b 0p requeues 6818 
 backlog 0b 0p requeues 6818 
 backlog 0b 0p requeues 6818 
 backlog 0b 0p requeues 6818 
 backlog 0b 0p requeues 6818 
 backlog 0b 0p requeues 6818 
 backlog 0b 0p requeues 6818 
 backlog 0b 0p requeues 6818 
 backlog 0b 0p requeues 6818 
 backlog 0b 0p requeues 6818 
 backlog 0b 0p requeues 6818 
 backlog 0b 0p requeues 6818 
 backlog 0b 0p requeues 6818 
 backlog 0b 0p requeues 6818 
 backlog 0b 0p requeues 6818 
 backlog 0b 0p requeues 6818 
 backlog 0b 0p requeues 6818 
 backlog 0b 0p requeues 6818 
 backlog 0b 0p requeues 6818 
 backlog 0b 0p requeues 6818 
 backlog 0b 0p requeues 6818 
 backlog 0b 0p requeues 6818 
 backlog 0b 0p requeues 6818 
 backlog 0b 0p requeues 6818 
 backlog 0b 0p requeues 6818 
 backlog 0b 0p requeues 6818 
 backlog 0b 0p requeues 6818 
 backlog 0b 0p requeues 6818 
 backlog 0b 0p requeues 6818 
 backlog 0b 0p requeues 6818 
 backlog 0b 0p requeues 6818 
 backlog 0b 0p requeues 6819 
 backlog 0b 0p requeues 6819 
 backlog 0b 0p requeues 6819 
 backlog 0b 0p requeues 6819 
 backlog 0b 0p requeues 6819 
 backlog 0b 0p requeues 6819 
 backlog 0b 0p requeues 6819 
 backlog 0b 0p requeues 6819 
 backlog 0b 0p requeues 6819 
 backlog 0b 0p requeues 6819 
 backlog 0b 0p requeues 6819 
 backlog 0b 0p requeues 6820 
 backlog 0b 0p requeues 6820 
 backlog 0b 0p requeues 6820 
 backlog 0b 0p requeues 6821 
 backlog 0b 0p requeues 6822 
 backlog 0b 0p requeues 6822 
 backlog 0b 0p requeues 6822 
 backlog 0b 0p requeues 6822 
 backlog 0b 0p requeues 6822 
 backlog 0b 0p requeues 6822 
 backlog 0b 0p requeues 6822 
 backlog 0b 0p requeues 6823 
 backlog 0b 0p requeues 6823 
 backlog 0b 0p requeues 6824 
 backlog 0b 0p requeues 6828 
 backlog 0b 0p requeues 6852 
 backlog 0b 0p requeues 6880 
 backlog 0b 0p requeues 6933 
 backlog 0b 0p requeues 6989 
 backlog 0b 0p requeues 7025 
 backlog 0b 0p requeues 7062 
 backlog 0b 0p requeues 7101 
 backlog 0b 0p requeues 7148 
 backlog 0b 0p requeues 7201 
 backlog 0b 0p requeues 7260 
 backlog 0b 0p requeues 7320 
 backlog 0b 0p requeues 7360 
 backlog 0b 0p requeues 7407 
 backlog 0b 0p requeues 7451 
 backlog 0b 0p requeues 7508 
 backlog 0b 0p requeues 7549 
 backlog 0b 0p requeues 7595 
 backlog 0b 0p requeues 7623 
 backlog 0b 0p requeues 7664 
 backlog 0b 0p requeues 7735 
 backlog 0b 0p requeues 7776 
 backlog 0b 0p requeues 7827 
 backlog 0b 0p requeues 7882 
 backlog 0b 0p requeues 7926 
 backlog 0b 0p requeues 7973 
 backlog 0b 0p requeues 7995 
 backlog 0b 0p requeues 8042 
 backlog 0b 0p requeues 8053 
 backlog 0b 0p requeues 8053 
 backlog 0b 0p requeues 8053 
